<svg width="20" height="20" viewBox="0 0 20 20" fill="none" xmlns="http://www.w3.org/2000/svg">
<path d="M19.728 17.2295L15.8332 13.3493C15.6574 13.1741 15.4191 13.0768 15.1691 13.0768H14.5323C15.6105 11.703 16.2512 9.97499 16.2512 8.09519C16.2512 3.62338 12.6142 0 8.1256 0C3.63699 0 0 3.62338 0 8.09519C0 12.567 3.63699 16.1904 8.1256 16.1904C10.0125 16.1904 11.747 15.5521 13.126 14.4779V15.1123C13.126 15.3614 13.2236 15.5988 13.3994 15.7739L17.2942 19.6542C17.6614 20.02 18.2552 20.02 18.6185 19.6542L19.7241 18.5528C20.0913 18.1869 20.0913 17.5954 19.728 17.2295ZM8.1256 13.0768C5.36367 13.0768 3.12523 10.8507 3.12523 8.09519C3.12523 5.3436 5.35977 3.11353 8.1256 3.11353C10.8875 3.11353 13.126 5.33971 13.126 8.09519C13.126 10.8468 10.8914 13.0768 8.1256 13.0768Z" fill="white"/>
</svg>
