<svg width="20" height="16" viewBox="0 0 20 16" fill="none" xmlns="http://www.w3.org/2000/svg">
<path d="M19.4141 8.16489L12.8516 14.7274C12.2656 15.3133 11.25 14.9032 11.25 14.0633V10.3133H5.9375C5.41797 10.3133 5 9.89536 5 9.37583V5.62583C5 5.1063 5.41797 4.68833 5.9375 4.68833H11.25V0.938331C11.25 0.102393 12.2617 -0.311669 12.8516 0.274268L19.4141 6.83677C19.7773 7.20396 19.7773 7.79771 19.4141 8.16489ZM7.5 14.5321V12.9696C7.5 12.7118 7.28906 12.5008 7.03125 12.5008H3.75C3.05859 12.5008 2.5 11.9422 2.5 11.2508V3.75083C2.5 3.05942 3.05859 2.50083 3.75 2.50083H7.03125C7.28906 2.50083 7.5 2.28989 7.5 2.03208V0.469581C7.5 0.211768 7.28906 0.000830804 7.03125 0.000830804H3.75C1.67969 0.000830804 0 1.68052 0 3.75083V11.2508C0 13.3211 1.67969 15.0008 3.75 15.0008H7.03125C7.28906 15.0008 7.5 14.7899 7.5 14.5321Z" fill="white"/>
</svg>
