<svg width="62" height="55" viewBox="0 0 62 55" fill="none" xmlns="http://www.w3.org/2000/svg">
<path d="M61.3022 47.267C63.289 50.7039 60.7951 55 56.8269 55H5.17251C1.19665 55 -1.28572 50.6972 0.697208 47.267L26.5247 2.57651C28.5125 -0.861953 33.4911 -0.855722 35.4753 2.57651L61.3022 47.267ZM31 38.0273C28.2655 38.0273 26.0486 40.2397 26.0486 42.9688C26.0486 45.6978 28.2655 47.9102 31 47.9102C33.7346 47.9102 35.9514 45.6978 35.9514 42.9688C35.9514 40.2397 33.7346 38.0273 31 38.0273ZM26.2991 20.2656L27.0976 34.8749C27.1349 35.5586 27.7013 36.0938 28.3873 36.0938H33.6127C34.2987 36.0938 34.8651 35.5586 34.9025 34.8749L35.7009 20.2656C35.7413 19.5271 35.1522 18.9062 34.4112 18.9062H27.5887C26.8477 18.9062 26.2587 19.5271 26.2991 20.2656Z" fill="#484848"/>
</svg>
